<?xml version="1.0" encoding="utf-8"?>
<!-- Generator: Adobe Illustrator 18.0.0, SVG Export Plug-In . SVG Version: 6.00 Build 0)  -->
<!DOCTYPE svg PUBLIC "-//W3C//DTD SVG 1.1//EN" "http://www.w3.org/Graphics/SVG/1.1/DTD/svg11.dtd">
<svg version="1.1" id="Layer_1" xmlns="http://www.w3.org/2000/svg" xmlns:xlink="http://www.w3.org/1999/xlink" x="0px" y="0px"
	 viewBox="0 0 193.6 54.5" enable-background="new 0 0 193.6 54.5" xml:space="preserve">
<path fill="#6E0202" d="M131.6,24.9L131.6,24.9L131.6,24.9z"/>
<polyline fill="#6E0202" points="53,16.5 53,16.5 53,16.5 "/>
<path fill="#6E0202" d="M43.9,41.3L47,22.1c0.1-0.6,0.4-1.1,0.9-1.3l0.1-0.4c0.1-0.5,0-0.9-0.2-1.1c-0.2-0.2-0.5-0.4-0.9-0.4
	c-0.9,0-1.4,0.5-1.6,1.4l-3.1,19.6c-0.1,0.5,0,0.9,0.2,1.1c0.2,0.2,0.5,0.4,0.9,0.4C43.5,41.4,43.7,41.4,43.9,41.3L43.9,41.3z"/>
<polyline fill="#6E0202" points="52.8,16.3 52.8,16.3 52.8,16.3 "/>
<path fill="#6E0202" d="M54.8,18.3L54.8,18.3l-1.6-1.6c0.9,1.1,1.3,2.6,1,4.6l-2.9,18.1h0l0,0c-0.8,4.4-3.7,6.2-8.6,6.2
	c-2.4,0-4.2-0.5-5.4-1.6l1.7,1.7c1.2,1.1,3.1,1.6,5.5,1.6c4.9,0,7.9-1.8,8.6-6.2L56,22.7C56.2,20.8,55.8,19.3,54.8,18.3"/>
<polygon fill="#6E0202" points="131.6,7.7 125.7,45.3 119.1,45.3 120.9,47.1 127.4,47.1 133.4,9.4 "/>
<path fill="#6E0202" d="M119.1,45.3L119.1,45.3L119.1,45.3z"/>
<path fill="#6E0202" d="M69.5,14.7L69.5,14.7C69.5,14.7,69.5,14.7,69.5,14.7C69.5,14.7,69.5,14.7,69.5,14.7"/>
<path fill="#6E0202" d="M70,22.3l-0.7-0.1c-1.8-0.3-4-0.2-4.4,2.4l-3.6,22.5h-6.5l-1.8-1.8h6.5l3.6-22.5c0.5-3.1,3.4-2.7,5.4-2.2
	l0.9-5.7l0-0.2l0.9,0.9v0l0.6,0.6L70,22.3z"/>
<polygon fill="#6E0202" points="78.9,7.7 78.9,7.7 72.9,45.3 66.4,45.3 68.1,47.1 74.7,47.1 80.6,9.4 "/>
<path fill="#6E0202" d="M88.7,20.4c0.1-0.5,0-0.9-0.2-1.1C88.3,19.1,88,19,87.6,19c-0.9,0-1.4,0.5-1.6,1.4L82.9,40
	c-0.1,0.5,0,0.9,0.2,1.1c0.2,0.2,0.5,0.4,0.9,0.4c0.3,0,0.5,0,0.7-0.1v0l3.1-19.2c0.1-0.6,0.4-1.1,0.9-1.3L88.7,20.4z"/>
<path fill="#6E0202" d="M97.1,7.7L97.1,7.7l-6,37.6h-3.9l-1.1-1.9c-1.2,1.4-2.8,2.2-5,2.2c-1.6,0-2.9-0.4-3.7-1.1l1.6,1.6
	c0.8,0.8,2.1,1.2,3.8,1.2c2,0,3.5-0.6,4.6-1.8l0.6,0.6c0,0,0,0,0,0l0.9,0.9h3.9l6-37.6L97.1,7.7z"/>
<polygon fill="#6E0202" points="40.1,7.6 28.6,45.2 21.7,45.2 23.5,46.9 30.3,46.9 41.9,9.3 "/>
<path fill="#6E0202" d="M154.6,34.7l-0.8,5.3c-0.1,0.5,0,0.9,0.2,1.1c0.2,0.2,0.5,0.4,0.9,0.4c0.3,0,0.5,0,0.7-0.1l0.8-4.9
	L154.6,34.7z"/>
<path fill="#6E0202" d="M166.7,18.4l-1.7-1.7c1,1.2,1.3,2.8,0.9,4.7l-0.6,3.5H159l1.8,1.7h6.3l0.5-2.9l0.2-1.7
	C167.9,20.5,167.6,19.3,166.7,18.4"/>
<path fill="#6E0202" d="M159.7,20.8c-0.5,0.2-0.8,0.7-0.9,1.3l-0.5,3.3l0,0c-0.1,0.6-0.1,1,0.2,1.4l-1-0.9c-0.8-0.6-1.1-1.3-0.9-2.3
	l0,0l0.5-3.3c0.2-0.9,0.7-1.4,1.6-1.4c0.4,0,0.7,0.1,0.9,0.4c0.2,0.3,0.3,0.6,0.2,1.1L159.7,20.8z"/>
<path fill="#6E0202" d="M162.1,30.1c1.6,1.7,1.9,4.1,1.5,6.6l-0.5,2.7c-0.8,4.4-3.5,6.2-8.8,6.2c-2.4,0-4.2-0.6-5.4-1.7l1.7,1.7
	c1.2,1.2,3.1,1.7,5.4,1.7c5.3,0,8-1.8,8.8-6.2l0.6-4.1c0.1-2-0.3-3.8-1.7-5.2L162.1,30.1z"/>
<path fill="#6E0202" d="M173.7,41.3"/>
<path fill="#6E0202" d="M173.7,41.3c-0.2,0.1-0.4,0.1-0.7,0.1c-0.4,0-0.7-0.1-0.9-0.4c-0.2-0.3-0.3-0.6-0.2-1.1l0.8-5.3l1.7,1.7
	L173.7,41.3z"/>
<path fill="#6E0202" d="M180.2,30.1c1.6,1.7,1.9,4.1,1.5,6.6l-0.5,2.7c-0.8,4.4-3.5,6.2-8.8,6.2c-2.4,0-4.2-0.6-5.4-1.7l1.8,1.7
	c1.2,1.2,3.1,1.7,5.4,1.7c5.3,0,8-1.8,8.8-6.2l0.6-4.1c0.1-2-0.3-3.8-1.7-5.2L180.2,30.1z"/>
<path fill="#6E0202" d="M175.6,26l1,0.9c-0.2-0.4-0.2-0.9-0.1-1.4l0,0l0.5-3.3c0.1-0.6,0.4-1.1,0.9-1.3l0.1-0.4
	c0.1-0.5,0-0.9-0.2-1.1c-0.2-0.2-0.5-0.4-0.9-0.4c-0.9,0-1.4,0.5-1.6,1.4l-0.5,3.3l0,0C174.6,24.7,174.8,25.4,175.6,26"/>
<path fill="#6E0202" d="M184.9,18.4l-1.7-1.7c1,1.2,1.3,2.8,0.9,4.7l-0.6,3.5h-6.4l1.8,1.7h6.3l0.5-2.9L186,22
	C186.1,20.5,185.8,19.3,184.9,18.4"/>
<path fill="#6E0202" d="M148.5,18.5l-1.7-1.7c0.9,1,1.3,2.5,1,4.4l-3.8,24.1H140l-1.1-1.9c-1.2,1.4-2.7,2.2-5,2.2
	c-1.6,0-2.9-0.4-3.7-1.1l1.6,1.6l0,0c0.8,0.9,2.1,1.3,3.9,1.3c2,0,3.5-0.6,4.6-1.8l1.5,1.5h3.9l1.2-7.6l2.5-15.9l0.2-1.3
	C149.7,20.6,149.3,19.4,148.5,18.5"/>
<path fill="#6E0202" d="M139.2,34.5c-0.6,0.5-0.9,1.1-1,1.9l-0.8,4.9h0c-0.2,0.1-0.4,0.1-0.7,0.1c-0.4,0-0.7-0.1-0.9-0.4
	c-0.2-0.2-0.2-0.5-0.2-0.8c0-0.1,0-0.2,0-0.3l0.8-5.3c0.2-1.1,0.7-1.8,1.7-2.4l1.5-0.8L139.2,34.5z"/>
<path fill="#6E0202" d="M139.8,26.6l0.7-4.5c0.1-0.6,0.4-1.1,0.9-1.3l0.1-0.4c0.1-0.5,0-0.9-0.2-1.1c-0.2-0.2-0.5-0.4-0.9-0.4
	c-0.9,0-1.4,0.5-1.6,1.4l-0.7,4.5l-6.5,0l1.8,1.7h4.7L139.8,26.6"/>
<path fill="#6E0202" d="M122,11l-1.6-1.6c1,1.1,1.4,2.6,1.1,4.6l-1.1,6.9h-6.6l1.7,1.7l6.6,0l1.2-7.8C123.4,13.2,122.9,11.9,122,11"
	/>
<path fill="#6E0202" d="M109.1,41.4c0.2,0,0.4,0,0.6-0.1l4.3-26.4c0.1-0.7,0.5-1.2,1.1-1.4l0-0.3c0.1-0.5,0-0.9-0.2-1.2
	c-0.2-0.2-0.6-0.4-1-0.4c-0.9,0-1.5,0.5-1.6,1.5l-4.3,26.7c-0.1,0.5,0,0.9,0.2,1.2C108.3,41.2,108.6,41.4,109.1,41.4"/>
<path fill="#6E0202" d="M113.7,20.9L113.7,20.9L113.7,20.9z"/>
<path fill="#6E0202" d="M117.4,39.2c-0.7,4.4-3.9,6.4-8.7,6.4c-2.8,0-4.8-0.6-6.1-1.7l1.7,1.7c1.2,1.2,3.3,1.8,6.1,1.8
	c4.7,0,8-2,8.7-6.4l1.4-8.8l-1.7-1.7L117.4,39.2z"/>
<path fill="#FFFFFF" d="M47.9,20.4L44.8,40c-0.2,0.9-0.7,1.4-1.6,1.4c-0.4,0-0.7-0.1-0.9-0.4c-0.2-0.3-0.3-0.6-0.2-1.1l3.1-19.6
	c0.2-0.9,0.7-1.4,1.6-1.4c0.4,0,0.7,0.1,0.9,0.4C48,19.6,48,19.9,47.9,20.4 M47.4,14.8c-4.9,0-7.9,1.9-8.7,6.3l-2.9,18.3
	c-0.5,4.1,2.2,6.2,6.9,6.2c4.9,0,7.9-1.8,8.6-6.2l0,0h0l2.9-18.1C54.9,16.9,52.3,14.8,47.4,14.8"/>
<polygon fill="#FFFFFF" points="125.7,45.3 131.6,7.7 125.1,7.7 119.1,45.3 "/>
<path fill="#FFFFFF" d="M69.5,15l0-0.2c-2.3-0.3-4.9,0.2-6.5,2.2l-1.2-1.9h-3.9l-4.8,30.3v0h6.5l3.6-22.5c0.5-3.1,3.4-2.7,5.4-2.2
	L69.5,15z M72.3,7.7l-6,37.6l6.5,0l6-37.6L72.3,7.7z"/>
<path fill="#FFFFFF" d="M88.7,20.4L85.6,40c-0.2,0.9-0.7,1.4-1.6,1.4c-0.4,0-0.7-0.1-0.9-0.4c-0.2-0.3-0.3-0.6-0.2-1.1L86,20.4
	c0.2-0.9,0.7-1.4,1.6-1.4c0.4,0,0.7,0.1,0.9,0.4C88.7,19.6,88.8,20,88.7,20.4 M90.6,7.7l-1.3,8.4c-0.9-0.9-2.2-1.3-3.9-1.3
	c-3.5,0-5.2,1.8-5.7,5.3l-3.2,20.3c-0.6,3.5,1.3,5.3,4.8,5.3c2.2,0,3.8-0.7,5-2.2l1.1,1.9h3.9l6-37.6H90.6z"/>
<path fill="#FFFFFF" d="M159.2,14.7c-5,0-7.9,1.7-8.7,6.3l-0.4,2c-0.5,2.8,0.1,5.2,2.3,7l3.8,3.4c0.7,0.6,1,1.4,0.9,2.2l-0.7,4.3
	c-0.2,0.9-0.7,1.4-1.6,1.4c-0.4,0-0.7-0.1-0.9-0.4c-0.2-0.3-0.3-0.6-0.2-1.1l0.8-5.3h-6.2l-0.8,4.7c-0.6,4.2,2.2,6.3,6.7,6.3
	c5.3,0,8-1.8,8.8-6.2l0.5-2.7c0.5-2.8,0.1-5.5-2.1-7.2l-4-3.5c-0.8-0.6-1.1-1.3-0.9-2.3l0,0l0.5-3.3c0.2-0.9,0.7-1.4,1.6-1.4
	c0.4,0,0.7,0.1,0.9,0.4c0.2,0.3,0.3,0.6,0.2,1.1l-0.7,4.4l6.4,0l0.6-3.5C166.7,17.5,164.8,14.7,159.2,14.7"/>
<path fill="#FFFFFF" d="M177.4,14.7c-5,0-7.9,1.7-8.7,6.3l-0.4,2c-0.5,2.8,0.1,5.2,2.3,7l3.8,3.4c0.7,0.6,1,1.4,0.9,2.2l-0.7,4.3
	c-0.2,0.9-0.7,1.4-1.6,1.4c-0.4,0-0.7-0.1-0.9-0.4c-0.2-0.3-0.3-0.6-0.2-1.1l0.8-5.3h-6.2l-0.8,4.7c-0.6,4.2,2.2,6.3,6.7,6.3
	c5.3,0,8-1.8,8.8-6.2l0.5-2.7c0.5-2.8,0.1-5.5-2.1-7.2l-4-3.5c-0.8-0.6-1.1-1.3-0.9-2.3l0,0l0.5-3.3c0.2-0.9,0.7-1.4,1.6-1.4
	c0.4,0,0.7,0.1,0.9,0.4c0.2,0.3,0.3,0.6,0.2,1.1l-0.7,4.4l6.4,0l0.6-3.5C184.9,17.5,183,14.7,177.4,14.7"/>
<path fill="#FFFFFF" d="M138.3,40L138.3,40c-0.2,0.9-0.7,1.4-1.6,1.4c-0.4,0-0.7-0.1-0.9-0.4c-0.2-0.2-0.2-0.5-0.2-0.8
	c0-0.1,0-0.2,0-0.3l0.8-5.3c0.2-1.1,0.7-1.8,1.7-2.4l1.5-0.8L138.3,40z M141,14.8c-4.9,0-8,1.9-8.8,6.3l-0.6,3.8l6.5,0l0.7-4.5
	c0.2-0.9,0.7-1.4,1.6-1.4c0.4,0,0.7,0.1,0.9,0.4c0.2,0.3,0.3,0.6,0.2,1.1l-0.9,5.8l-6,3.2c-2.8,1.5-4.2,3.4-4.7,6.5l-0.7,4.4
	c-0.6,3.5,1.3,5.3,4.8,5.3c2.2,0,3.8-0.7,5-2.2l1.1,1.9h3.9l3.8-24.1C148.5,16.8,145.5,14.8,141,14.8"/>
<path fill="#FFFFFF" d="M114.3,7.4c-4.9,0-8.3,2-9,6.4l-4,25.1c-0.7,4.3,1.8,6.7,7.5,6.7c4.7,0,7.9-2,8.7-6.4l1.5-8.8h-6.6l0,0.1
	l-1.5,9.4c-0.1,1-0.7,1.5-1.6,1.5c-0.4,0-0.8-0.1-1-0.4c-0.2-0.3-0.3-0.7-0.2-1.2l4.3-26.7c0.2-1,0.7-1.5,1.6-1.5
	c0.4,0,0.8,0.1,1,0.4c0.2,0.3,0.3,0.7,0.2,1.2l-1.3,7.8h6.6l1.1-6.9C122.1,9.5,119.2,7.4,114.3,7.4"/>
<polygon fill="#6E0202" points="2.9,49.9 4.7,49.9 4.7,4.7 46.2,4.7 46.7,2.9 2.9,2.9 "/>
<polygon fill="#6E0202" points="102.4,4.7 70.1,4.7 68.9,12.1 46.2,12.1 44.5,10.4 44.5,10.4 67.2,10.4 68.4,2.9 102.6,2.9 "/>
<path fill="#6E0202" d="M104.3,9.4c3-3.5,6.4-4.7,10.3-4.7l22.2,0l0.3-1.7h-22.8c-4.2,0-8.2,1.9-11,5.1l-1.7,1.9l1.1,1.2L104.3,9.4z
	"/>
<path fill="#6E0202" d="M141,7.2c-0.5,0-1.1,0-1.6,0.1l1.1-7.2l1.7,1.7l-0.8,5.4L141,7.2z"/>
<path fill="#6E0202" d="M105.7,2.3c0.6-0.3,1.2-0.6,1.8-0.9L106,0L105.7,2.3z"/>
<polyline fill="#6E0202" points="50.6,0 48.4,7.4 50.7,7.4 52.4,1.7 50.6,0 "/>
<path fill="#6E0202" d="M100.2,47.8c-0.2-0.1-0.4-0.4-0.6-0.6c-1.2-1.5-1.6-3.6-1.6-3.6L96.5,42v0c0,0,0.4,2.2,2.3,4.4
	C99.1,46.9,99.6,47.4,100.2,47.8L100.2,47.8z"/>
<path fill="#6E0202" d="M187.4,14.4c-0.2-0.2-0.3-0.5-0.5-0.7c-2-2.4-5.2-3.7-9.5-3.7c-3.7,0-6.7,0.9-9,2.5L168,13l-0.5-0.4
	c-2-1.7-4.8-2.5-8.3-2.5c-3.7,0-6.8,0.9-9,2.6l-0.5,0.4l-0.5-0.4c-2.1-1.7-4.8-2.6-8.3-2.6c-1.4,0-2.8,0.1-4,0.4l-1.1,0.2v0l1.7,1.7
	l1.1-0.2c1.2-0.3,2.6-0.4,4-0.4c3.4,0,6.2,0.9,8.3,2.6l0.5,0.4l0.5-0.4c2.2-1.7,5.3-2.6,9-2.6c3.5,0,6.3,0.8,8.3,2.5l0.5,0.4
	l0.5-0.4c2.2-1.7,5.2-2.5,8.9-2.5c3.1,0,5.7,0.7,7.6,2C187.1,14,187.3,14.3,187.4,14.4L187.4,14.4z"/>
<path fill="#FFFFFF" d="M188.7,22.2l-2.9,18.2c-0.7,4.2-1.7,9.5-11.6,9.5h-65.5c-4.8,0-8.1-1-10-3.4c-1.8-2.2-2.3-4.4-2.3-4.4
	l-1.3,7.9l0,0H42.7c-5,0-7.8-1.4-9.2-3c0,0,0-0.1-0.1-0.1v0h0l-0.9,3.1h0H2.9V2.9h43.8l-2.3,7.4h22.7l1.2-7.4l34.3,0l-1,7.1l1.7-2
	c2.8-3.3,6.8-5.1,11-5.1h22.8l-1.2,7.8l1.1-0.2c1.2-0.3,2.6-0.4,4-0.4c3.4,0,6.2,0.9,8.3,2.6l0.5,0.4l0.5-0.4c2.3-1.7,5.3-2.6,9-2.6
	c3.5,0,6.3,0.8,8.3,2.5L168,13l0.5-0.4c2.2-1.7,5.3-2.5,9-2.5c4.3,0,7.4,1.2,9.5,3.7C188.2,15.3,189.5,18,188.7,22.2 M0,52.8h34.6
	l0.4-1.2c1.9,1,4.4,1.2,7.7,1.2v0h55l0.5-2.9c2.5,2,5.9,2.9,10.6,2.9h65.5c12.4,0,13.8-7.7,14.5-11.9l2.9-18.2
	c1-5.3-0.8-8.8-2.5-10.8c-2.6-3.2-6.6-4.7-11.7-4.8c-3.7,0-6.8,0.8-9.4,2.2c-2.4-1.5-5.3-2.2-8.8-2.2c-3.7,0-6.9,0.8-9.5,2.3
	c-2.4-1.5-5.3-2.3-8.8-2.3c-0.5,0-1.1,0-1.6,0.1l1.1-7.2l-20,0l-6.2,0c-3,0-6,0.8-8.6,2.3L106,0L65.9,0l-1.2,7.4H48.4L50.6,0H0V52.8
	"/>
<path fill="#FFFFFF" d="M188.7,22.2l-2.9,18.2c-0.7,4.2-1.7,9.5-11.6,9.5h-65.5c-4.8,0-8.1-1-10-3.4c-1.8-2.2-2.3-4.4-2.3-4.4
	l-1.3,7.9l0,0H42.7c-5,0-7.8-1.4-9.2-3c0,0,0-0.1-0.1-0.1v0h0l-0.9,3.1h0H2.9V2.9h43.8l-2.3,7.4h22.7l1.2-7.4l34.3,0l-1,7.1l1.7-2
	c2.8-3.3,6.8-5.1,11-5.1h22.8l-1.2,7.8l1.1-0.2c1.2-0.3,2.6-0.4,4-0.4c3.4,0,6.2,0.9,8.3,2.6l0.5,0.4l0.5-0.4c2.3-1.7,5.3-2.6,9-2.6
	c3.5,0,6.3,0.8,8.3,2.5L168,13l0.5-0.4c2.2-1.7,5.3-2.5,9-2.5c4.3,0,7.4,1.2,9.5,3.7C188.2,15.3,189.5,18,188.7,22.2 M0,52.8h34.6
	l0.4-1.2c1.9,1,4.4,1.2,7.7,1.2v0h55l0.5-2.9c2.5,2,5.9,2.9,10.6,2.9h65.5c12.4,0,13.8-7.7,14.5-11.9l2.9-18.2
	c1-5.3-0.8-8.8-2.5-10.8c-2.6-3.2-6.6-4.7-11.7-4.8c-3.7,0-6.8,0.8-9.4,2.2c-2.4-1.5-5.3-2.2-8.8-2.2c-3.7,0-6.9,0.8-9.5,2.3
	c-2.4-1.5-5.3-2.3-8.8-2.3c-0.5,0-1.1,0-1.6,0.1l1.1-7.2l-20,0l-6.2,0c-3,0-6,0.8-8.6,2.3L106,0L65.9,0l-1.2,7.4H48.4L50.6,0H0V52.8
	"/>
<path fill="#6E0202" d="M191.3,14.2c-0.1-0.2-0.3-0.4-0.4-0.5c-0.2-0.3-0.5-0.6-0.7-0.8l-1.7-1.7c0,0,0,0,0,0
	c0.1,0.1,0.2,0.2,0.3,0.4c0,0,0,0.1,0.1,0.1c0.1,0.1,0.2,0.3,0.3,0.4c1.7,2,3.4,5.5,2.5,10.8l-2.9,18.2c-0.7,4.2-2.1,11.9-14.5,11.9
	h-65.5c-4.6,0-8-0.9-10.6-2.9l-0.5,2.9h-55v0c-3.2,0-5.6-0.3-7.5-1.1L35,51.6l-0.4,1.2H0v0h0l1.7,1.7l0,0v0h34.6l0.4-1.2
	c1.9,1,4.4,1.2,7.7,1.2v0h55l0.5-2.9c2.5,2,5.9,2.9,10.6,2.9h65.5c12.4,0,13.8-7.7,14.5-11.9l2.9-18.2
	C194.2,19.6,192.8,16.3,191.3,14.2"/>
<polygon fill="#FFFFFF" points="28.6,45.2 40.1,7.6 33.6,7.6 27.6,26.6 27.2,26.6 27.3,7.6 20.1,7.6 14.4,26.7 14,26.7 14,7.6 
	7.6,7.6 7.6,45.2 14.5,45.2 20.9,23.6 21.3,23.6 21.7,45.2 "/>
<polygon fill="#6E0202" points="14,26.7 14.4,26.7 15.8,22 15.8,9.3 14,7.6 "/>
<polygon fill="#6E0202" points="27.6,26.6 29,22.3 29,20.8 29,9.3 27.3,7.6 27.2,26.6 "/>
<polygon fill="#6E0202" points="21.3,23.6 20.9,23.6 14.5,45.2 7.6,45.2 9.3,46.9 16.3,46.9 21.4,29.5 "/>
</svg>
